﻿{
  "_items": [
    {
      "_ID": 1,
      "_title": "유니티삼디 입문",
      "_tags": [
        "입문레벨"
      ]
    },
    {
      "_ID": 2,
      "_title": "이세계 대상인이 되어보자",
      "_tags": [
        "프롤로그"
      ]
    },
    {
      "_ID": 3,
      "_title": "이상훈",
      "_tags": [
        "프로그래밍 일반"
      ]
    },
    {
      "_ID": 4,
      "_title": "임현빈",
      "_tags": [
        "프로그래밍 일반"
      ]
    },
    {
      "_ID": 5,
      "_title": "박다솔",
      "_tags": [
        "프로그래밍 일반"
      ]
    },
    {
      "_ID": 6,
      "_title": "경성현",
      "_tags": [
        "프로그래밍 일반"
      ]
    },
    {
      "_ID": 7,
      "_title": "최윤영",
      "_tags": [
        "프로그래밍 일반"
      ]
    },
    {
      "_ID": 8,
      "_title": "정동열",
      "_tags": [
        "프로그래밍 일반"
      ]
    },
    {
      "_ID": 9,
      "_title": "한지성",
      "_tags": [
        "프로그래밍 일반"
      ]
    },
    {
      "_ID": 10,
      "_title": "한지성",
      "_tags": [
        "프로그래밍 일반"
      ]
    },
    {
      "_ID": 11,
      "_title": "고태",
      "_tags": [
        "프로그래밍 일반"
      ]
    }
    
  ]
}